........
----------------------------------------------------------------------
Ran 8 tests in 0.002s

OK
Name               Stmts   Miss Branch BrPart  Cover   Missing
--------------------------------------------------------------
Diplomacy.py          96      2     50      1    98%   108->109, 109-111
TestDiplomacy.py      46      0      2      1    98%   92->exit
--------------------------------------------------------------
TOTAL                142      2     52      2    98%
