...
----------------------------------------------------------------------
Ran 3 tests in 0.001s

OK
Name               Stmts   Miss Branch BrPart  Cover   Missing
--------------------------------------------------------------
Diplomacy.py          51      0     32      0   100%
TestDiplomacy.py      19      0      0      0   100%
--------------------------------------------------------------
TOTAL                 70      0     32      0   100%
